<?xml version="1.0" encoding="UTF-8" standalone="no"?>
<!-- Created with Inkscape (http://www.inkscape.org/) -->

<svg
   xmlns:dc="http://purl.org/dc/elements/1.1/"
   xmlns:cc="http://creativecommons.org/ns#"
   xmlns:rdf="http://www.w3.org/1999/02/22-rdf-syntax-ns#"
   xmlns:svg="http://www.w3.org/2000/svg"
   xmlns="http://www.w3.org/2000/svg"
   xmlns:sodipodi="http://sodipodi.sourceforge.net/DTD/sodipodi-0.dtd"
   xmlns:inkscape="http://www.inkscape.org/namespaces/inkscape"
   width="236.5625"
   height="225"
   id="svg2"
   version="1.1"
   inkscape:version="0.48.4 r9939"
   sodipodi:docname="star.svg">
  <defs
     id="defs4" />
  <sodipodi:namedview
     id="base"
     pagecolor="#ffffff"
     bordercolor="#666666"
     borderopacity="1.0"
     inkscape:pageopacity="0.0"
     inkscape:pageshadow="2"
     inkscape:zoom="2.8"
     inkscape:cx="68.291203"
     inkscape:cy="91.397456"
     inkscape:document-units="px"
     inkscape:current-layer="layer1"
     showgrid="false"
     inkscape:window-width="1920"
     inkscape:window-height="995"
     inkscape:window-x="0"
     inkscape:window-y="27"
     inkscape:window-maximized="1"
     fit-margin-top="0"
     fit-margin-left="0"
     fit-margin-right="0"
     fit-margin-bottom="0" />
  <metadata
     id="metadata7">
    <rdf:RDF>
      <cc:Work
         rdf:about="">
        <dc:format>image/svg+xml</dc:format>
        <dc:type
           rdf:resource="http://purl.org/dc/dcmitype/StillImage" />
        <dc:title></dc:title>
      </cc:Work>
    </rdf:RDF>
  </metadata>
  <g
     inkscape:label="Layer 1"
     inkscape:groupmode="layer"
     id="layer1"
     transform="translate(-226.18547,-400.68785)">
     <!-- Exterior -->
    <path
       sodipodi:type="star"
       style="fill:
       
       
       
       
       
       #BBBBBB
       
       
       
       
       
       ;fill-opacity:1;fill-rule:nonzero;stroke:#00ff00;stroke-width:0;stroke-miterlimit:4;stroke-opacity:1;stroke-dasharray:none;stroke-dashoffset:0"
       id="path2985"
       sodipodi:sides="5"
       sodipodi:cx="217.1828"
       sodipodi:cy="406.87469"
       sodipodi:r1="124.26519"
       sodipodi:r2="62.132595"
       sodipodi:arg1="-1.5707963"
       sodipodi:arg2="-0.9424778"
       inkscape:flatsided="false"
       inkscape:rounded="0"
       inkscape:randomized="0"
       d="m 217.1828,282.6095 36.52062,73.99887 81.6626,11.86627 -59.09161,57.60008 13.94963,81.33263 -73.04124,-38.40006 -73.04125,38.40005 13.94964,-81.33262 -59.091607,-57.60008 81.662597,-11.86627 z"
       inkscape:transform-center-y="-11.866269"
       transform="translate(127.27922,118.18785)" />
    
    <!-- Direita -->
    <path
       sodipodi:nodetypes="cccccccc"
       inkscape:connector-curvature="0"
       id="path3806"
       d="m 344.46201,432.40591 -13.92857,87.21051 13.92857,51.3911 54.31199,28.5535 -10.37267,-60.47729 43.93932,-42.83025 -60.72265,-8.82352 z"
       inkscape:transform-center-y="-8.8235185"
       style="fill:
       
       
       
       
       #BBBBBB
       
       
       
       
       ;fill-opacity:1;fill-rule:nonzero;stroke:#00ff00;stroke-width:0;stroke-miterlimit:4;stroke-opacity:1;stroke-dashoffset:0" />
    
    <!-- Esquerda -->
    <path
       transform="matrix(0.7435797,0,0,0.7435797,182.96929,222.26322)"
       style="fill:
       
       
       
       
       #BBBBBB
       
       
       
       
       ;fill-opacity:1;fill-rule:nonzero;stroke:#00ff00;stroke-width:0;stroke-miterlimit:4;stroke-opacity:1;stroke-dashoffset:0"
       inkscape:transform-center-y="-8.8235211"
       d="m 217.1828,282.6095 0,186.39779 -73.04125,38.40005 13.94964,-81.33262 -59.091607,-57.60008 81.662597,-11.86627 z"
       id="path2985-9"
       inkscape:connector-curvature="0"
       sodipodi:nodetypes="ccccccc" />
  </g>
</svg>
